…
``` r
as_tibble(national)
```

    ## # A tibble: 342 x 20
    ##    시군별 연도별 중국.남. 중국.여. 미국.남. 미국.여. 베트남.남. 베트남.여.
    ##    <chr>   <int>    <int>    <int>    <int>    <int>      <int>      <int>
    ##  1 춘천시   2000      139      130       72       69         37          2
    ##  2 원주시   2000      228      148       60       43         12         13
    ##  3 강릉시   2000      159      111       55       31         35          4
    ##  4 동해시   2000       26       29       13        4          0          0
    ##  5 태백시   2000        5       10        9        4          0          1
    ##  6 속초시   2000       10       17       18        7          0          3
    ##  7 삼척시   2000       14        7        5        2          0          0
    ##  8 홍천군   2000       29       27        0        1          0          0
    ##  9 횡성군   2000       23       20        7        1         10          3
    ## 10 영월군   2000        3        5        2        3          0          0
    ## # ... with 332 more rows, and 12 more variables: 일본.남. <int>,
    ## #   일본.여. <int>, 영국.남. <int>, 영국.여. <int>, 필리핀.남. <int>,
    ## #   필리핀.여. <int>, 대만.남. <int>, 대만.여. <int>, 인도네시아.남. <int>,
    ## #   인도네시아.여. <int>, 캐나다.남. <int>, 캐나다.여. <int>
…
