…
\#카페 판매 분석

kaggle에서 카페 판매 분석이라는 데이터를 사용하여 간단한 분석을 해보려고 합니다. 판매 품목별 판매량과 프로모션 여부가 있는
데이터로 먼저 판매 인기 품목을 확인하고 프로모션이 판매가 주는 영향이 얼마나 있는지 분석해보도록 하겠습니다.

### 사용할 데이터 로드

``` r
bakery<- read.csv("bakery_sales.csv")
tibble(bakery)
```

    ## # A tibble: 5,113 x 9
    ##        X Date       weekday   cakes  pies cookies smoothies coffee promotion
    ##    <int> <chr>      <chr>     <int> <int>   <int>     <int>  <int> <chr>    
    ##  1     0 2006-01-01 Sunday       45    41      50        19     73 promotion
    ##  2     1 2006-01-02 Monday       48    18      18        44      5 none     
    ##  3     2 2006-01-03 Tuesday       1    40      99        41      8 none     
    ##  4     3 2006-01-04 Wednesday     4    10      15        58     95 none     
    ##  5     4 2006-01-05 Thursday      4    44      67        71     20 promotion
    ##  6     5 2006-01-06 Friday       40    27     104        39     76 promotion
    ##  7     6 2006-01-07 Saturday     10    21      10        26      5 none     
    ##  8     7 2006-01-08 Sunday       20    58      59        74     68 promotion
    ##  9     8 2006-01-09 Monday       22     5      28        61     54 none     
    ## 10     9 2006-01-10 Tuesday      37    43      76        72     67 promotion
    ## # ... with 5,103 more rows
…
