…
  - 사용할 데이터를 로드하고 전처리합니다.
  - 전처리 한 데이터를 사용하여 분석표를 작성합니다.
  - 분석표를 기준으로 그래프를 작성하고 분석합니다.

### 1\. 사용할 데이터 로드

환자의 기록에 관련된 자료는 info와 route로 두가지 이며, 해당 두 자료는 분석을 편리하게 하기 위해서
patient\_id 기준으로 결합하도록 하겠습니다.

``` r
tibble(patient_info)
```

    ## # A tibble: 4,004 x 18
    ##    patient_id global_num sex   birth_year age   country province city  disease
    ##         <dbl>      <dbl> <chr>      <dbl> <chr> <chr>   <chr>    <chr> <lgl>  
    ##  1 1000000001          2 male        1964 50s   Korea   Seoul    Gang~ NA     
    ##  2 1000000002          5 male        1987 30s   Korea   Seoul    Jung~ NA     
    ##  3 1000000003          6 male        1964 50s   Korea   Seoul    Jong~ NA     
    ##  4 1000000004          7 male        1991 20s   Korea   Seoul    Mapo~ NA     
    ##  5 1000000005          9 fema~       1992 20s   Korea   Seoul    Seon~ NA     
    ##  6 1000000006         10 fema~       1966 50s   Korea   Seoul    Jong~ NA     
    ##  7 1000000007         11 male        1995 20s   Korea   Seoul    Jong~ NA     
    ##  8 1000000008         13 male        1992 20s   Korea   Seoul    etc   NA     
    ##  9 1000000009         19 male        1983 30s   Korea   Seoul    Song~ NA     
    ## 10 1000000010         21 fema~       1960 60s   Korea   Seoul    Seon~ NA     
    ## # ... with 3,994 more rows, and 9 more variables: infection_case <chr>,
    ## #   infection_order <dbl>, infected_by <dbl>, contact_number <dbl>,
    ## #   symptom_onset_date <date>, confirmed_date <date>, released_date <date>,
    ## #   deceased_date <lgl>, state <chr>

``` r
tibble(patient_route)
```

    ## # A tibble: 8,092 x 8
    ##    patient_id global_num date       province  city    type    latitude longitude
    ##         <dbl>      <dbl> <date>     <chr>     <chr>   <chr>      <dbl>     <dbl>
    ##  1 1000000001          2 2020-01-22 Gyeonggi~ Gimpo-~ airport     37.6      127.
    ##  2 1000000001          2 2020-01-24 Seoul     Jung-gu hospit~     37.6      127.
    ##  3 1000000002          5 2020-01-25 Seoul     Seongb~ etc         37.6      127.
    ##  4 1000000002          5 2020-01-26 Seoul     Seongb~ store       37.6      127.
    ##  5 1000000002          5 2020-01-26 Seoul     Seongd~ public~     37.6      127.
    ##  6 1000000002          5 2020-01-26 Seoul     Seongb~ public~     37.6      127.
    ##  7 1000000002          5 2020-01-26 Seoul     Seongb~ store       37.6      127.
    ##  8 1000000002          5 2020-01-27 Seoul     Seongb~ restau~     37.6      127.
    ##  9 1000000002          5 2020-01-27 Seoul     Dongda~ store       37.6      127.
    ## 10 1000000002          5 2020-01-28 Seoul     Seongb~ etc         37.6      127.
    ## # ... with 8,082 more rows
…
``` r
View(patient_route)


patient_info %>%left_join(patient_route, by="patient_id")
```

    ## # A tibble: 10,624 x 25
    ##    patient_id global_num.x sex   birth_year age   country province.x city.x
    ##         <dbl>        <dbl> <chr>      <dbl> <chr> <chr>   <chr>      <chr> 
    ##  1 1000000001            2 male        1964 50s   Korea   Seoul      Gangs~
    ##  2 1000000001            2 male        1964 50s   Korea   Seoul      Gangs~
    ##  3 1000000002            5 male        1987 30s   Korea   Seoul      Jungn~
    ##  4 1000000002            5 male        1987 30s   Korea   Seoul      Jungn~
    ##  5 1000000002            5 male        1987 30s   Korea   Seoul      Jungn~
    ##  6 1000000002            5 male        1987 30s   Korea   Seoul      Jungn~
    ##  7 1000000002            5 male        1987 30s   Korea   Seoul      Jungn~
    ##  8 1000000002            5 male        1987 30s   Korea   Seoul      Jungn~
    ##  9 1000000002            5 male        1987 30s   Korea   Seoul      Jungn~
    ## 10 1000000002            5 male        1987 30s   Korea   Seoul      Jungn~
    ## # ... with 10,614 more rows, and 17 more variables: disease <lgl>,
    ## #   infection_case <chr>, infection_order <dbl>, infected_by <dbl>,
    ## #   contact_number <dbl>, symptom_onset_date <date>, confirmed_date <date>,
    ## #   released_date <date>, deceased_date <lgl>, state <chr>, global_num.y <dbl>,
    ## #   date <date>, province.y <chr>, city.y <chr>, type <chr>, latitude <dbl>,
    ## #   longitude <dbl>
…
